<?xml version="1.0" encoding="UTF-8" standalone="no"?>
<!-- Generator: Adobe Illustrator 15.0.0, SVG Export Plug-In . SVG Version: 6.00 Build 0)  -->

<svg
   xmlns:dc="http://purl.org/dc/elements/1.1/"
   xmlns:cc="http://creativecommons.org/ns#"
   xmlns:rdf="http://www.w3.org/1999/02/22-rdf-syntax-ns#"
   xmlns:svg="http://www.w3.org/2000/svg"
   xmlns="http://www.w3.org/2000/svg"
   xmlns:sodipodi="http://sodipodi.sourceforge.net/DTD/sodipodi-0.dtd"
   xmlns:inkscape="http://www.inkscape.org/namespaces/inkscape"
   version="1.1"
   id="Layer_1"
   inkscape:version="0.48.4 r9939"
   sodipodi:docname="shape_star_2.svg"
   x="0px"
   y="0px"
   width="96px"
   height="96px"
   viewBox="0 0 96 96"
   enable-background="new 0 0 96 96"
   xml:space="preserve"><metadata
   id="metadata3064"><rdf:RDF><cc:Work
       rdf:about=""><dc:format>image/svg+xml</dc:format><dc:type
         rdf:resource="http://purl.org/dc/dcmitype/StillImage" /><dc:title></dc:title></cc:Work></rdf:RDF></metadata><defs
   id="defs3062" /><sodipodi:namedview
   pagecolor="#ffffff"
   bordercolor="#666666"
   borderopacity="1"
   objecttolerance="10"
   gridtolerance="10"
   guidetolerance="10"
   inkscape:pageopacity="0"
   inkscape:pageshadow="2"
   inkscape:window-width="1366"
   inkscape:window-height="705"
   id="namedview3060"
   showgrid="false"
   inkscape:zoom="3.93"
   inkscape:cx="48"
   inkscape:cy="48"
   inkscape:window-x="-8"
   inkscape:window-y="-8"
   inkscape:window-maximized="1"
   inkscape:current-layer="Layer_1" />

<rect
   id="rect3"
   display="none"
   fill="#FFFFFF"
   stroke="#000000"
   width="96"
   height="96" />
<path
   sodipodi:type="star"
   style="fill:#000000"
   id="path2983"
   sodipodi:sides="20"
   sodipodi:cx="2.5445292"
   sodipodi:cy="3.1246819"
   sodipodi:r1="45.384731"
   sodipodi:r2="36.717018"
   sodipodi:arg1="0.68612399"
   sodipodi:arg2="0.84320362"
   inkscape:flatsided="false"
   inkscape:rounded="3.1225023e-017"
   inkscape:randomized="0"
   d="m57.765652,8.6c-5.543118,-0.34 -10.484192,-3.09 -14.89003,-6.46c-6.718628,8.15 -11.229601,18.94 -9.662224,29.909999c-2.580404,16.330002 -1.369394,-10.679998 1.424011,6.459999c-0.573368,10.920002 4.013969,21.84 1.041698,32.650005c-0.257961,6.939995 -3.182446,13.549995 -2.351017,20.57c3.249447,2.909996 7.865559,3.129997 11.79351,4.269997l15.472958,0c2.972271,-1.620003 13.819565,-1.690002 9.834259,-7.849998c-0.707268,-14.07 -3.163422,-29.190002 -0.105133,-43.220001c0.850548,-13.190001 -4.807266,-26.07 -12.558033,-36.33z"
   inkscape:transform-center-x="3.7414556"
   inkscape:transform-center-y="-0.85723747" /></svg>